sim/sim_out.vcd
$date
	Thu May 11 20:59:07 2023
$end
$version
	Icarus Verilog
$end
$timescale
	1ps
$end
$scope module tb_rvseed_many $end
$var wire 32 ! a0_x10 [31:0] $end
$var wire 32 " a1_x11 [31:0] $end
$var wire 32 # a2_x12 [31:0] $end
$var wire 32 $ a3_x13 [31:0] $end
$var wire 32 % a4_x14 [31:0] $end
$var wire 32 & a5_x15 [31:0] $end
$var wire 32 ' a6_x16 [31:0] $end
$var wire 32 ( a7_x17 [31:0] $end
$var wire 32 ) gp_x3 [31:0] $end
$var wire 32 * ra_x1 [31:0] $end
$var wire 32 + s0_fp_x8 [31:0] $end
$var wire 32 , s10_x26 [31:0] $end
$var wire 32 - s11_x27 [31:0] $end
$var wire 32 . s1_x9 [31:0] $end
$var wire 32 / s2_x18 [31:0] $end
$var wire 32 0 s3_x19 [31:0] $end
$var wire 32 1 s4_x20 [31:0] $end
$var wire 32 2 s5_x21 [31:0] $end
$var wire 32 3 s6_x22 [31:0] $end
$var wire 32 4 s7_x23 [31:0] $end
$var wire 32 5 s8_x24 [31:0] $end
$var wire 32 6 s9_x25 [31:0] $end
$var wire 32 7 sp_x2 [31:0] $end
$var wire 32 8 t0_x5 [31:0] $end
$var wire 32 9 t1_x6 [31:0] $end
$var wire 32 : t2_x7 [31:0] $end
$var wire 32 ; t3_x28 [31:0] $end
$var wire 32 < t4_x29 [31:0] $end
$var wire 32 = t5_x30 [31:0] $end
$var wire 32 > t6_x31 [31:0] $end
$var wire 32 ? tp_x4 [31:0] $end
$var wire 32 @ zero_x0 [31:0] $end
$var reg 1 A clk $end
$var reg 1 B rst_n $end
$var integer 32 C r [31:0] $end
$scope module u_rvseed_0 $end
$var wire 1 A clk $end
$var wire 32 D reg_wdata [31:0] $end
$var wire 1 B rst_n $end
$var wire 1 E zero $end
$var wire 1 F reg_wen $end
$var wire 5 G reg_waddr [4:0] $end
$var wire 32 H reg2_rdata [31:0] $end
$var wire 5 I reg2_raddr [4:0] $end
$var wire 32 J reg1_rdata [31:0] $end
$var wire 5 K reg1_raddr [4:0] $end
$var wire 32 L next_pc [31:0] $end
$var wire 1 M jump $end
$var wire 1 N jalr $end
$var wire 32 O inst [31:0] $end
$var wire 3 P imm_gen_op [2:0] $end
$var wire 32 Q imm [31:0] $end
$var wire 1 R ena $end
$var wire 32 S curr_pc [31:0] $end
$var wire 1 T branch $end
$var wire 2 U alu_src_sel [1:0] $end
$var wire 32 V alu_src2 [31:0] $end
$var wire 32 W alu_src1 [31:0] $end
$var wire 32 X alu_res [31:0] $end
$var wire 4 Y alu_op [3:0] $end
$scope module u_alu_0 $end
$var wire 1 Z op1_ge_op2_unsigned $end
$var wire 1 [ op1_ge_op2_signed $end
$var wire 32 \ inst [31:0] $end
$var wire 32 ] alu_src2 [31:0] $end
$var wire 32 ^ alu_src1 [31:0] $end
$var wire 4 _ alu_op [3:0] $end
$var reg 32 ` alu_res [31:0] $end
$upscope $end
$scope module u_ctrl_0 $end
$var wire 5 a rs2 [4:0] $end
$var wire 5 b rs1 [4:0] $end
$var wire 32 c reg2_rdata [31:0] $end
$var wire 32 d reg1_rdata [31:0] $end
$var wire 5 e rd [4:0] $end
$var wire 7 f opcode [6:0] $end
$var wire 1 g op1_ge_op2_unsigned $end
$var wire 1 h op1_ge_op2_signed $end
$var wire 1 i op1_eq_op2 $end
$var wire 32 j inst [31:0] $end
$var wire 7 k funct7 [6:0] $end
$var wire 3 l funct3 [2:0] $end
$var reg 4 m alu_op [3:0] $end
$var reg 2 n alu_src_sel [1:0] $end
$var reg 1 T branch $end
$var reg 3 o imm_gen_op [2:0] $end
$var reg 1 N jalr $end
$var reg 1 M jump $end
$var reg 5 p reg1_raddr [4:0] $end
$var reg 5 q reg2_raddr [4:0] $end
$var reg 5 r reg_waddr [4:0] $end
$var reg 1 F reg_wen $end
$var reg 1 E zero $end
$upscope $end
$scope module u_imm_gen_0 $end
$var wire 3 s imm_gen_op [2:0] $end
$var wire 32 t inst [31:0] $end
$var reg 32 u imm [31:0] $end
$upscope $end
$scope module u_inst_mem_0 $end
$var wire 32 v curr_pc [31:0] $end
$var reg 32 w inst [31:0] $end
$upscope $end
$scope module u_mux_alu_0 $end
$var wire 2 x alu_src_sel [1:0] $end
$var wire 32 y imm [31:0] $end
$var wire 32 z reg2_rdata [31:0] $end
$var wire 32 { reg1_rdata [31:0] $end
$var wire 32 | curr_pc [31:0] $end
$var reg 32 } alu_src1 [31:0] $end
$var reg 32 ~ alu_src2 [31:0] $end
$upscope $end
$scope module u_mux_pc_0 $end
$var wire 1 T branch $end
$var wire 32 !" imm [31:0] $end
$var wire 1 N jalr $end
$var wire 1 M jump $end
$var wire 1 E zero $end
$var wire 32 "" reg1_rdata [31:0] $end
$var wire 1 R ena $end
$var wire 32 #" curr_pc [31:0] $end
$var reg 32 $" next_pc [31:0] $end
$upscope $end
$scope module u_pc_reg_0 $end
$var wire 1 A clk $end
$var wire 32 %" next_pc [31:0] $end
$var wire 1 B rst_n $end
$var reg 32 &" curr_pc [31:0] $end
$var reg 1 R ena $end
$upscope $end
$scope module u_reg_file_0 $end
$var wire 1 A clk $end
$var wire 5 '" reg1_raddr [4:0] $end
$var wire 5 (" reg2_raddr [4:0] $end
$var wire 5 )" reg_waddr [4:0] $end
$var wire 32 *" reg_wdata [31:0] $end
$var wire 1 F reg_wen $end
$var wire 1 B rst_n $end
$var reg 32 +" reg1_rdata [31:0] $end
$var reg 32 ," reg2_rdata [31:0] $end
$upscope $end
$upscope $end
$scope task inst_load $end
$upscope $end
$scope task reset $end
$upscope $end
$upscope $end
$enddefinitions $end
#0
$dumpvars
bx ,"
bx +"
bx *"
bx )"
bx ("
bx '"
bx &"
bx %"
bx $"
bx #"
bx ""
bx !"
bx ~
bx }
bx |
bx {
bx z
bx y
bx x
bx w
bx v
bx u
bx t
bx s
bx r
bx q
bx p
bx o
bx n
bx m
bx l
bx k
bx j
xi
xh
xg
bx f
bx e
bx d
bx c
bx b
bx a
bx `
bx _
bx ^
bx ]
bx \
x[
xZ
bx Y
bx X
bx W
bx V
bx U
xT
bx S
xR
bx Q
bx P
bx O
xN
xM
bx L
bx K
bx J
bx I
bx H
bx G
xF
xE
bx D
bx C
xB
xA
bx @
bx ?
bx >
bx =
bx <
bx ;
bx :
bx 9
bx 8
bx 7
bx 6
bx 5
bx 4
bx 3
bx 2
bx 1
bx 0
bx /
bx .
bx -
bx ,
bx +
bx *
bx )
bx (
bx '
bx &
bx %
bx $
bx #
bx "
bx !
$end
#10000
1Z
1[
b0 V
b0 ]
b0 ~
b0 W
b0 ^
b0 }
b0 D
b0 *"
b0 X
b0 `
1i
1g
1h
b0 H
b0 c
b0 z
b0 ,"
b0 J
b0 d
b0 {
b0 ""
b0 +"
0E
b1 U
b1 n
b1 x
b11 Y
b11 _
b11 m
b0 P
b0 o
b0 s
b11010 G
b11010 r
b11010 )"
b0 I
b0 q
b0 ("
b0 K
b0 p
b0 '"
1F
0N
0M
0T
b0 a
b0 b
b11010 e
b0 k
b0 l
b10011 f
b0 Q
b0 u
b0 y
b0 !"
b110100010011 O
b110100010011 \
b110100010011 j
b110100010011 t
b110100010011 w
b0 L
b0 $"
b0 %"
0R
b0 S
b0 v
b0 |
b0 #"
b0 &"
0B
1A
#20000
0A
#30000
b100 L
b100 $"
b100 %"
b0 ,
1R
1A
1B
#40000
0A
#50000
b1 U
b1 n
b1 x
b11 Y
b11 _
b11 m
b11011 G
b11011 r
b11011 )"
1F
b11011 e
b110110010011 O
b110110010011 \
b110110010011 j
b110110010011 t
b110110010011 w
b1000 L
b1000 $"
b1000 %"
b100 S
b100 v
b100 |
b100 #"
b100 &"
1A
#60000
0A
#70000
b1 U
b1 n
b1 x
b11 Y
b11 _
b11 m
b1 G
b1 r
b1 )"
1F
b1 e
b10010011 O
b10010011 \
b10010011 j
b10010011 t
b10010011 w
b1100 L
b1100 $"
b1100 %"
b0 -
b1000 S
b1000 v
b1000 |
b1000 #"
b1000 &"
1A
#80000
0A
#90000
b1 U
b1 n
b1 x
b11 Y
b11 _
b11 m
b10 G
b10 r
b10 )"
1F
b10 e
b100010011 O
b100010011 \
b100010011 j
b100010011 t
b100010011 w
b10000 L
b10000 $"
b10000 %"
b1100 S
b1100 v
b1100 |
b1100 #"
b1100 &"
b0 *
1A
#100000
0A
#110000
b0 D
b0 *"
b0 X
b0 `
b10 I
b10 q
b10 ("
b1 K
b1 p
b1 '"
b0 U
b0 n
b0 x
b1000 Y
b1000 _
b1000 m
b11110 G
b11110 r
b11110 )"
1F
1Z
1[
b0 V
b0 ]
b0 ~
b10 a
b1 b
b11110 e
b10 l
b110011 f
b10 Q
b10 u
b10 y
b10 !"
b1000001010111100110011 O
b1000001010111100110011 \
b1000001010111100110011 j
b1000001010111100110011 t
b1000001010111100110011 w
b10100 L
b10100 $"
b10100 %"
b0 7
b10000 S
b10000 v
b10000 |
b10000 #"
b10000 &"
1A
#120000
0A
#130000
b1 U
b1 n
b1 x
b11 Y
b11 _
b11 m
b11101 G
b11101 r
b11101 )"
b0 I
b0 q
b0 ("
b0 K
b0 p
b0 '"
1F
b0 a
b0 b
b11101 e
b0 l
b10011 f
b0 Q
b0 u
b0 y
b0 !"
b111010010011 O
b111010010011 \
b111010010011 j
b111010010011 t
b111010010011 w
b11000 L
b11000 $"
b11000 %"
b10100 S
b10100 v
b10100 |
b10100 #"
b10100 &"
b0 =
1A
#140000
0A
#150000
b10 D
b10 *"
b10 X
b10 `
b1 U
b1 n
b1 x
b11 Y
b11 _
b11 m
b11 G
b11 r
b11 )"
1F
0Z
0[
b10 V
b10 ]
b10 ~
b10 a
b11 e
b10 Q
b10 u
b10 y
b10 !"
b1000000000000110010011 O
b1000000000000110010011 \
b1000000000000110010011 j
b1000000000000110010011 t
b1000000000000110010011 w
b11100 L
b11100 $"
b11100 %"
b0 <
b11000 S
b11000 v
b11000 |
b11000 #"
b11000 &"
1A
#160000
0A
#170000
1T
b10 P
b10 o
b10 s
b11101 I
b11101 q
b11101 ("
b11110 K
b11110 p
b11110 '"
b0 U
b0 n
b0 x
b0 Y
b0 _
b0 m
b0 G
b0 r
b0 )"
0F
b11101 a
b11110 b
b10100 e
b100101 k
b1 l
b1100011 f
b10010110100 Q
b10010110100 u
b10010110100 y
b10010110100 !"
b0 D
b0 *"
b0 X
b0 `
b1001011110111110001101001100011 O
b1001011110111110001101001100011 \
b1001011110111110001101001100011 j
b1001011110111110001101001100011 t
b1001011110111110001101001100011 w
1Z
1[
b0 V
b0 ]
b0 ~
b100000 L
b100000 $"
b100000 %"
b11100 S
b11100 v
b11100 |
b11100 #"
b11100 &"
b10 )
1A
#180000
0A
#190000
b1 D
b1 *"
b1 X
b1 `
0Z
0[
b1 V
b1 ]
b1 ~
b11 Y
b11 _
b11 m
b1 U
b1 n
b1 x
b1 G
b1 r
b1 )"
1F
b0 P
b0 o
b0 s
b0 I
b0 q
b0 ("
b0 K
b0 p
b0 '"
0T
b1 a
b0 b
b1 e
b0 k
b0 l
b10011 f
b1 Q
b1 u
b1 y
b1 !"
b100000000000010010011 O
b100000000000010010011 \
b100000000000010010011 j
b100000000000010010011 t
b100000000000010010011 w
b100100 L
b100100 $"
b100100 %"
b100000 S
b100000 v
b100000 |
b100000 #"
b100000 &"
1A
#200000
0A
#210000
b1 U
b1 n
b1 x
b11 Y
b11 _
b11 m
b10 G
b10 r
b10 )"
1F
b10 e
b1 Q
b1 u
b1 y
b1 !"
b1 D
b1 *"
b1 X
b1 `
b100000000000100010011 O
b100000000000100010011 \
b100000000000100010011 j
b100000000000100010011 t
b100000000000100010011 w
0Z
0[
b1 V
b1 ]
b1 ~
b101000 L
b101000 $"
b101000 %"
b100100 S
b100100 v
b100100 |
b100100 #"
b100100 &"
b1 *
1A
#220000
0A
#230000
b1 W
b1 ^
b1 }
b1 H
b1 c
b1 z
b1 ,"
1i
b1 J
b1 d
b1 {
b1 ""
b1 +"
b10 I
b10 q
b10 ("
b1 K
b1 p
b1 '"
b0 U
b0 n
b0 x
b1000 Y
b1000 _
b1000 m
b11110 G
b11110 r
b11110 )"
1F
b10 a
b1 b
b11110 e
b10 l
b110011 f
b10 Q
b10 u
b10 y
b10 !"
b0 D
b0 *"
b0 X
b0 `
b1000001010111100110011 O
b1000001010111100110011 \
b1000001010111100110011 j
b1000001010111100110011 t
b1000001010111100110011 w
1Z
1[
b1 V
b1 ]
b1 ~
b101100 L
b101100 $"
b101100 %"
b1 7
b101000 S
b101000 v
b101000 |
b101000 #"
b101000 &"
1A
#240000
0A
#250000
b0 V
b0 ]
b0 ~
1Z
1[
b0 W
b0 ^
b0 }
b0 D
b0 *"
b0 X
b0 `
b0 H
b0 c
b0 z
b0 ,"
1i
1g
1h
b0 J
b0 d
b0 {
b0 ""
b0 +"
b1 U
b1 n
b1 x
b11 Y
b11 _
b11 m
b11101 G
b11101 r
b11101 )"
b0 I
b0 q
b0 ("
b0 K
b0 p
b0 '"
1F
b0 a
b0 b
b11101 e
b0 l
b10011 f
b0 Q
b0 u
b0 y
b0 !"
b111010010011 O
b111010010011 \
b111010010011 j
b111010010011 t
b111010010011 w
b110000 L
b110000 $"
b110000 %"
b101100 S
b101100 v
b101100 |
b101100 #"
b101100 &"
1A
#260000
0A
#270000
b11 D
b11 *"
b11 X
b11 `
b1 U
b1 n
b1 x
b11 Y
b11 _
b11 m
b11 G
b11 r
b11 )"
1F
0Z
0[
b11 V
b11 ]
b11 ~
b11 a
b11 e
b11 Q
b11 u
b11 y
b11 !"
b1100000000000110010011 O
b1100000000000110010011 \
b1100000000000110010011 j
b1100000000000110010011 t
b1100000000000110010011 w
b110100 L
b110100 $"
b110100 %"
b110000 S
b110000 v
b110000 |
b110000 #"
b110000 &"
1A
#280000
0A
#290000
1T
b10 P
b10 o
b10 s
b11101 I
b11101 q
b11101 ("
b11110 K
b11110 p
b11110 '"
b0 U
b0 n
b0 x
b0 Y
b0 _
b0 m
b0 G
b0 r
b0 )"
0F
b11101 a
b11110 b
b11100 e
b100100 k
b1 l
b1100011 f
b10010011100 Q
b10010011100 u
b10010011100 y
b10010011100 !"
b0 D
b0 *"
b0 X
b0 `
b1001001110111110001111001100011 O
b1001001110111110001111001100011 \
b1001001110111110001111001100011 j
b1001001110111110001111001100011 t
b1001001110111110001111001100011 w
1Z
1[
b0 V
b0 ]
b0 ~
b111000 L
b111000 $"
b111000 %"
b110100 S
b110100 v
b110100 |
b110100 #"
b110100 &"
b11 )
1A
#300000
0A
#310000
b11 D
b11 *"
b11 X
b11 `
0Z
0[
b11 V
b11 ]
b11 ~
b11 Y
b11 _
b11 m
b1 U
b1 n
b1 x
b1 G
b1 r
b1 )"
1F
b0 P
b0 o
b0 s
b0 I
b0 q
b0 ("
b0 K
b0 p
b0 '"
0T
b11 a
b0 b
b1 e
b0 k
b0 l
b10011 f
b11 Q
b11 u
b11 y
b11 !"
b1100000000000010010011 O
b1100000000000010010011 \
b1100000000000010010011 j
b1100000000000010010011 t
b1100000000000010010011 w
b111100 L
b111100 $"
b111100 %"
b111000 S
b111000 v
b111000 |
b111000 #"
b111000 &"
1A
#320000
0A
#330000
b1 U
b1 n
b1 x
b11 Y
b11 _
b11 m
b10 G
b10 r
b10 )"
1F
b111 a
b10 e
b111 Q
b111 u
b111 y
b111 !"
b111 D
b111 *"
b111 X
b111 `
b11100000000000100010011 O
b11100000000000100010011 \
b11100000000000100010011 j
b11100000000000100010011 t
b11100000000000100010011 w
0Z
0[
b111 V
b111 ]
b111 ~
b1000000 L
b1000000 $"
b1000000 %"
b111100 S
b111100 v
b111100 |
b111100 #"
b111100 &"
b11 *
1A
#340000
0A
#350000
b11 W
b11 ^
b11 }
0g
0h
b111 H
b111 c
b111 z
b111 ,"
0i
b11 J
b11 d
b11 {
b11 ""
b11 +"
b10 I
b10 q
b10 ("
b1 K
b1 p
b1 '"
b0 U
b0 n
b0 x
b1000 Y
b1000 _
b1000 m
b11110 G
b11110 r
b11110 )"
1F
b10 a
b1 b
b11110 e
b10 l
b110011 f
b10 Q
b10 u
b10 y
b10 !"
b1 D
b1 *"
b1 X
b1 `
b1000001010111100110011 O
b1000001010111100110011 \
b1000001010111100110011 j
b1000001010111100110011 t
b1000001010111100110011 w
0Z
0[
b111 V
b111 ]
b111 ~
b1000100 L
b1000100 $"
b1000100 %"
b111 7
b1000000 S
b1000000 v
b1000000 |
b1000000 #"
b1000000 &"
1A
#360000
0A
#370000
0Z
0[
b1 V
b1 ]
b1 ~
b0 W
b0 ^
b0 }
b1 D
b1 *"
b1 X
b1 `
1i
1g
1h
b0 H
b0 c
b0 z
b0 ,"
b0 J
b0 d
b0 {
b0 ""
b0 +"
b1 U
b1 n
b1 x
b11 Y
b11 _
b11 m
b11101 G
b11101 r
b11101 )"
b0 I
b0 q
b0 ("
b0 K
b0 p
b0 '"
1F
b1 a
b0 b
b11101 e
b0 l
b10011 f
b1 Q
b1 u
b1 y
b1 !"
b100000000111010010011 O
b100000000111010010011 \
b100000000111010010011 j
b100000000111010010011 t
b100000000111010010011 w
b1001000 L
b1001000 $"
b1001000 %"
b1000100 S
b1000100 v
b1000100 |
b1000100 #"
b1000100 &"
b1 =
1A
#380000
0A
#390000
b1 U
b1 n
b1 x
b11 Y
b11 _
b11 m
b11 G
b11 r
b11 )"
1F
b100 a
b11 e
b100 Q
b100 u
b100 y
b100 !"
b100 D
b100 *"
b100 X
b100 `
b10000000000000110010011 O
b10000000000000110010011 \
b10000000000000110010011 j
b10000000000000110010011 t
b10000000000000110010011 w
0Z
0[
b100 V
b100 ]
b100 ~
b1001100 L
b1001100 $"
b1001100 %"
b1 <
b1001000 S
b1001000 v
b1001000 |
b1001000 #"
b1001000 &"
1A
#400000
0A
#410000
b1 W
b1 ^
b1 }
b1 H
b1 c
b1 z
b1 ,"
1i
b1 J
b1 d
b1 {
b1 ""
b1 +"
1T
b10 P
b10 o
b10 s
b11101 I
b11101 q
b11101 ("
b11110 K
b11110 p
b11110 '"
b0 U
b0 n
b0 x
b0 Y
b0 _
b0 m
b0 G
b0 r
b0 )"
0F
b11101 a
b11110 b
b100 e
b100100 k
b1 l
b1100011 f
b10010000100 Q
b10010000100 u
b10010000100 y
b10010000100 !"
b1 D
b1 *"
b1 X
b1 `
b1001001110111110001001001100011 O
b1001001110111110001001001100011 \
b1001001110111110001001001100011 j
b1001001110111110001001001100011 t
b1001001110111110001001001100011 w
1Z
1[
b1 V
b1 ]
b1 ~
b1010000 L
b1010000 $"
b1010000 %"
b1001100 S
b1001100 v
b1001100 |
b1001100 #"
b1001100 &"
b100 )
1A
#420000
0A
#430000
b111 D
b111 *"
b111 X
b111 `
b111 V
b111 ]
b111 ~
0Z
0[
b0 W
b0 ^
b0 }
b0 H
b0 c
b0 z
b0 ,"
1i
1g
1h
b0 J
b0 d
b0 {
b0 ""
b0 +"
b11 Y
b11 _
b11 m
b1 U
b1 n
b1 x
b1 G
b1 r
b1 )"
1F
b0 P
b0 o
b0 s
b0 I
b0 q
b0 ("
b0 K
b0 p
b0 '"
0T
b111 a
b0 b
b1 e
b0 k
b0 l
b10011 f
b111 Q
b111 u
b111 y
b111 !"
b11100000000000010010011 O
b11100000000000010010011 \
b11100000000000010010011 j
b11100000000000010010011 t
b11100000000000010010011 w
b1010100 L
b1010100 $"
b1010100 %"
b1010000 S
b1010000 v
b1010000 |
b1010000 #"
b1010000 &"
1A
#440000
0A
#450000
b1 U
b1 n
b1 x
b11 Y
b11 _
b11 m
b10 G
b10 r
b10 )"
1F
b11 a
b10 e
b11 Q
b11 u
b11 y
b11 !"
b11 D
b11 *"
b11 X
b11 `
b1100000000000100010011 O
b1100000000000100010011 \
b1100000000000100010011 j
b1100000000000100010011 t
b1100000000000100010011 w
0Z
0[
b11 V
b11 ]
b11 ~
b1011000 L
b1011000 $"
b1011000 %"
b1010100 S
b1010100 v
b1010100 |
b1010100 #"
b1010100 &"
b111 *
1A
#460000
0A
#470000
b111 W
b111 ^
b111 }
b11 H
b11 c
b11 z
b11 ,"
0i
b111 J
b111 d
b111 {
b111 ""
b111 +"
b10 I
b10 q
b10 ("
b1 K
b1 p
b1 '"
b0 U
b0 n
b0 x
b1000 Y
b1000 _
b1000 m
b11110 G
b11110 r
b11110 )"
1F
b10 a
b1 b
b11110 e
b10 l
b110011 f
b10 Q
b10 u
b10 y
b10 !"
b0 D
b0 *"
b0 X
b0 `
b1000001010111100110011 O
b1000001010111100110011 \
b1000001010111100110011 j
b1000001010111100110011 t
b1000001010111100110011 w
1Z
1[
b11 V
b11 ]
b11 ~
b1011100 L
b1011100 $"
b1011100 %"
b11 7
b1011000 S
b1011000 v
b1011000 |
b1011000 #"
b1011000 &"
1A
#480000
0A
#490000
b0 V
b0 ]
b0 ~
1Z
1[
b0 W
b0 ^
b0 }
b0 D
b0 *"
b0 X
b0 `
1i
b0 H
b0 c
b0 z
b0 ,"
1g
1h
b0 J
b0 d
b0 {
b0 ""
b0 +"
b1 U
b1 n
b1 x
b11 Y
b11 _
b11 m
b11101 G
b11101 r
b11101 )"
b0 I
b0 q
b0 ("
b0 K
b0 p
b0 '"
1F
b0 a
b0 b
b11101 e
b0 l
b10011 f
b0 Q
b0 u
b0 y
b0 !"
b111010010011 O
b111010010011 \
b111010010011 j
b111010010011 t
b111010010011 w
b1100000 L
b1100000 $"
b1100000 %"
b1011100 S
b1011100 v
b1011100 |
b1011100 #"
b1011100 &"
b0 =
1A
#500000
0A
#510000
b101 D
b101 *"
b101 X
b101 `
b1 U
b1 n
b1 x
b11 Y
b11 _
b11 m
b11 G
b11 r
b11 )"
1F
0Z
0[
b101 V
b101 ]
b101 ~
b101 a
b11 e
b101 Q
b101 u
b101 y
b101 !"
b10100000000000110010011 O
b10100000000000110010011 \
b10100000000000110010011 j
b10100000000000110010011 t
b10100000000000110010011 w
b1100100 L
b1100100 $"
b1100100 %"
b0 <
b1100000 S
b1100000 v
b1100000 |
b1100000 #"
b1100000 &"
1A
#520000
0A
#530000
1T
b10 P
b10 o
b10 s
b11101 I
b11101 q
b11101 ("
b11110 K
b11110 p
b11110 '"
b0 U
b0 n
b0 x
b0 Y
b0 _
b0 m
b0 G
b0 r
b0 )"
0F
b11101 a
b11110 b
b1100 e
b100011 k
b1 l
b1100011 f
b10001101100 Q
b10001101100 u
b10001101100 y
b10001101100 !"
b0 D
b0 *"
b0 X
b0 `
b1000111110111110001011001100011 O
b1000111110111110001011001100011 \
b1000111110111110001011001100011 j
b1000111110111110001011001100011 t
b1000111110111110001011001100011 w
1Z
1[
b0 V
b0 ]
b0 ~
b1101000 L
b1101000 $"
b1101000 %"
b1100100 S
b1100100 v
b1100100 |
b1100100 #"
b1100100 &"
b101 )
1A
#540000
0A
#550000
b11 Y
b11 _
b11 m
b1 U
b1 n
b1 x
b1 G
b1 r
b1 )"
1F
b0 P
b0 o
b0 s
b0 I
b0 q
b0 ("
b0 K
b0 p
b0 '"
0T
b0 a
b0 b
b1 e
b0 k
b0 l
b10011 f
b0 Q
b0 u
b0 y
b0 !"
b10010011 O
b10010011 \
b10010011 j
b10010011 t
b10010011 w
b1101100 L
b1101100 $"
b1101100 %"
b1101000 S
b1101000 v
b1101000 |
b1101000 #"
b1101000 &"
1A
#560000
0A
#570000
b11111111111111111000000000000000 D
b11111111111111111000000000000000 *"
b11111111111111111000000000000000 X
b11111111111111111000000000000000 `
b100 P
b100 o
b100 s
b1 U
b1 n
b1 x
b11 Y
b11 _
b11 m
b10 G
b10 r
b10 )"
1F
0Z
b11111111111111111000000000000000 V
b11111111111111111000000000000000 ]
b11111111111111111000000000000000 ~
b11111 a
b11111 b
b10 e
b1111111 k
b110111 f
b11111111111111111000000000000000 Q
b11111111111111111000000000000000 u
b11111111111111111000000000000000 y
b11111111111111111000000000000000 !"
b11111111111111111000000100110111 O
b11111111111111111000000100110111 \
b11111111111111111000000100110111 j
b11111111111111111000000100110111 t
b11111111111111111000000100110111 w
b1110000 L
b1110000 $"
b1110000 %"
b1101100 S
b1101100 v
b1101100 |
b1101100 #"
b1101100 &"
b0 *
1A
#580000
0A
#590000
0i
0g
b11111111111111111000000000000000 H
b11111111111111111000000000000000 c
b11111111111111111000000000000000 z
b11111111111111111000000000000000 ,"
b10 I
b10 q
b10 ("
b1 K
b1 p
b1 '"
b0 U
b0 n
b0 x
b1000 Y
b1000 _
b1000 m
b0 P
b0 o
b0 s
b11110 G
b11110 r
b11110 )"
1F
1[
b10 a
b1 b
b11110 e
b0 k
b10 l
b110011 f
b10 Q
b10 u
b10 y
b10 !"
b0 D
b0 *"
b0 X
b0 `
b1000001010111100110011 O
b1000001010111100110011 \
b1000001010111100110011 j
b1000001010111100110011 t
b1000001010111100110011 w
0Z
b11111111111111111000000000000000 V
b11111111111111111000000000000000 ]
b11111111111111111000000000000000 ~
b1110100 L
b1110100 $"
b1110100 %"
b11111111111111111000000000000000 7
b1110000 S
b1110000 v
b1110000 |
b1110000 #"
b1110000 &"
1A
#600000
0A
#610000
1Z
b0 V
b0 ]
b0 ~
b0 D
b0 *"
b0 X
b0 `
1i
1g
b0 H
b0 c
b0 z
b0 ,"
b1 U
b1 n
b1 x
b11 Y
b11 _
b11 m
b11101 G
b11101 r
b11101 )"
b0 I
b0 q
b0 ("
b0 K
b0 p
b0 '"
1F
b0 a
b0 b
b11101 e
b0 l
b10011 f
b0 Q
b0 u
b0 y
b0 !"
b111010010011 O
b111010010011 \
b111010010011 j
b111010010011 t
b111010010011 w
b1111000 L
b1111000 $"
b1111000 %"
b1110100 S
b1110100 v
b1110100 |
b1110100 #"
b1110100 &"
1A
#620000
0A
#630000
b110 D
b110 *"
b110 X
b110 `
b1 U
b1 n
b1 x
b11 Y
b11 _
b11 m
b11 G
b11 r
b11 )"
1F
0Z
0[
b110 V
b110 ]
b110 ~
b110 a
b11 e
b110 Q
b110 u
b110 y
b110 !"
b11000000000000110010011 O
b11000000000000110010011 \
b11000000000000110010011 j
b11000000000000110010011 t
b11000000000000110010011 w
b1111100 L
b1111100 $"
b1111100 %"
b1111000 S
b1111000 v
b1111000 |
b1111000 #"
b1111000 &"
1A
#640000
0A
#650000
1T
b10 P
b10 o
b10 s
b11101 I
b11101 q
b11101 ("
b11110 K
b11110 p
b11110 '"
b0 U
b0 n
b0 x
b0 Y
b0 _
b0 m
b0 G
b0 r
b0 )"
0F
b11101 a
b11110 b
b10100 e
b100010 k
b1 l
b1100011 f
b10001010100 Q
b10001010100 u
b10001010100 y
b10001010100 !"
b0 D
b0 *"
b0 X
b0 `
b1000101110111110001101001100011 O
b1000101110111110001101001100011 \
b1000101110111110001101001100011 j
b1000101110111110001101001100011 t
b1000101110111110001101001100011 w
1Z
1[
b0 V
b0 ]
b0 ~
b10000000 L
b10000000 $"
b10000000 %"
b1111100 S
b1111100 v
b1111100 |
b1111100 #"
b1111100 &"
b110 )
1A
#660000
0A
#670000
b10000000000000000000000000000000 D
b10000000000000000000000000000000 *"
b10000000000000000000000000000000 X
b10000000000000000000000000000000 `
0Z
b10000000000000000000000000000000 V
b10000000000000000000000000000000 ]
b10000000000000000000000000000000 ~
b1 U
b1 n
b1 x
b11 Y
b11 _
b11 m
b1 G
b1 r
b1 )"
1F
b100 P
b100 o
b100 s
b0 I
b0 q
b0 ("
b0 K
b0 p
b0 '"
0T
b0 a
b0 b
b1 e
b1000000 k
b0 l
b110111 f
b10000000000000000000000000000000 Q
b10000000000000000000000000000000 u
b10000000000000000000000000000000 y
b10000000000000000000000000000000 !"
b10000000000000000000000010110111 O
b10000000000000000000000010110111 \
b10000000000000000000000010110111 j
b10000000000000000000000010110111 t
b10000000000000000000000010110111 w
b10000100 L
b10000100 $"
b10000100 %"
b10000000 S
b10000000 v
b10000000 |
b10000000 #"
b10000000 &"
1A
#680000
0A
#690000
b1 U
b1 n
b1 x
b11 Y
b11 _
b11 m
b0 P
b0 o
b0 s
b10 G
b10 r
b10 )"
1F
b10 e
b0 k
b10011 f
b0 Q
b0 u
b0 y
b0 !"
b0 D
b0 *"
b0 X
b0 `
b100010011 O
b100010011 \
b100010011 j
b100010011 t
b100010011 w
1Z
b0 V
b0 ]
b0 ~
b10001000 L
b10001000 $"
b10001000 %"
b10000100 S
b10000100 v
b10000100 |
b10000100 #"
b10000100 &"
b10000000000000000000000000000000 *
1A
#700000
0A
#710000
b10000000000000000000000000000000 W
b10000000000000000000000000000000 ^
b10000000000000000000000000000000 }
0i
0h
b10000000000000000000000000000000 J
b10000000000000000000000000000000 d
b10000000000000000000000000000000 {
b10000000000000000000000000000000 ""
b10000000000000000000000000000000 +"
b1 D
b1 *"
b1 X
b1 `
b10 I
b10 q
b10 ("
b1 K
b1 p
b1 '"
b0 U
b0 n
b0 x
b1000 Y
b1000 _
b1000 m
b11110 G
b11110 r
b11110 )"
1F
1Z
0[
b0 V
b0 ]
b0 ~
b10 a
b1 b
b11110 e
b10 l
b110011 f
b10 Q
b10 u
b10 y
b10 !"
b1000001010111100110011 O
b1000001010111100110011 \
b1000001010111100110011 j
b1000001010111100110011 t
b1000001010111100110011 w
b10001100 L
b10001100 $"
b10001100 %"
b0 7
b10001000 S
b10001000 v
b10001000 |
b10001000 #"
b10001000 &"
1A
#720000
0A
