sim/sim_out.vcd
$date
	Wed Apr 19 22:49:51 2023
$end
$version
	Icarus Verilog
$end
$timescale
	1ps
$end
$scope module tb_rvseed_many $end
$var wire 32 ! a0_x10 [31:0] $end
$var wire 32 " a1_x11 [31:0] $end
$var wire 32 # a2_x12 [31:0] $end
$var wire 32 $ a3_x13 [31:0] $end
$var wire 32 % a4_x14 [31:0] $end
$var wire 32 & a5_x15 [31:0] $end
$var wire 32 ' a6_x16 [31:0] $end
$var wire 32 ( a7_x17 [31:0] $end
$var wire 32 ) gp_x3 [31:0] $end
$var wire 32 * ra_x1 [31:0] $end
$var wire 32 + s0_fp_x8 [31:0] $end
$var wire 32 , s10_x26 [31:0] $end
$var wire 32 - s11_x27 [31:0] $end
$var wire 32 . s1_x9 [31:0] $end
$var wire 32 / s2_x18 [31:0] $end
$var wire 32 0 s3_x19 [31:0] $end
$var wire 32 1 s4_x20 [31:0] $end
$var wire 32 2 s5_x21 [31:0] $end
$var wire 32 3 s6_x22 [31:0] $end
$var wire 32 4 s7_x23 [31:0] $end
$var wire 32 5 s8_x24 [31:0] $end
$var wire 32 6 s9_x25 [31:0] $end
$var wire 32 7 sp_x2 [31:0] $end
$var wire 32 8 t0_x5 [31:0] $end
$var wire 32 9 t1_x6 [31:0] $end
$var wire 32 : t2_x7 [31:0] $end
$var wire 32 ; t3_x28 [31:0] $end
$var wire 32 < t4_x29 [31:0] $end
$var wire 32 = t5_x30 [31:0] $end
$var wire 32 > t6_x31 [31:0] $end
$var wire 32 ? tp_x4 [31:0] $end
$var wire 32 @ zero_x0 [31:0] $end
$var reg 1 A clk $end
$var reg 1 B rst_n $end
$var integer 32 C r [31:0] $end
$scope module u_rvseed_0 $end
$var wire 1 A clk $end
$var wire 32 D reg_wdata [31:0] $end
$var wire 1 B rst_n $end
$var wire 1 E zero $end
$var wire 1 F reg_wen $end
$var wire 5 G reg_waddr [4:0] $end
$var wire 32 H reg2_rdata [31:0] $end
$var wire 5 I reg2_raddr [4:0] $end
$var wire 32 J reg1_rdata [31:0] $end
$var wire 5 K reg1_raddr [4:0] $end
$var wire 32 L next_pc [31:0] $end
$var wire 1 M jump $end
$var wire 32 N inst [31:0] $end
$var wire 3 O imm_gen_op [2:0] $end
$var wire 32 P imm [31:0] $end
$var wire 1 Q ena $end
$var wire 32 R curr_pc [31:0] $end
$var wire 1 S branch $end
$var wire 2 T alu_src_sel [1:0] $end
$var wire 32 U alu_src2 [31:0] $end
$var wire 32 V alu_src1 [31:0] $end
$var wire 32 W alu_res [31:0] $end
$var wire 4 X alu_op [3:0] $end
$scope module u_alu_0 $end
$var wire 1 Y op1_ge_op2_unsigned $end
$var wire 1 Z op1_ge_op2_signed $end
$var wire 32 [ inst [31:0] $end
$var wire 32 \ alu_src2 [31:0] $end
$var wire 32 ] alu_src1 [31:0] $end
$var wire 4 ^ alu_op [3:0] $end
$var reg 32 _ alu_res [31:0] $end
$var reg 1 E zero $end
$upscope $end
$scope module u_ctrl_0 $end
$var wire 5 ` rs2 [4:0] $end
$var wire 5 a rs1 [4:0] $end
$var wire 5 b rd [4:0] $end
$var wire 7 c opcode [6:0] $end
$var wire 32 d inst [31:0] $end
$var wire 7 e funct7 [6:0] $end
$var wire 3 f funct3 [2:0] $end
$var reg 4 g alu_op [3:0] $end
$var reg 2 h alu_src_sel [1:0] $end
$var reg 1 S branch $end
$var reg 3 i imm_gen_op [2:0] $end
$var reg 1 M jump $end
$var reg 5 j reg1_raddr [4:0] $end
$var reg 5 k reg2_raddr [4:0] $end
$var reg 5 l reg_waddr [4:0] $end
$var reg 1 F reg_wen $end
$upscope $end
$scope module u_imm_gen_0 $end
$var wire 3 m imm_gen_op [2:0] $end
$var wire 32 n inst [31:0] $end
$var reg 32 o imm [31:0] $end
$upscope $end
$scope module u_inst_mem_0 $end
$var wire 32 p curr_pc [31:0] $end
$var reg 32 q inst [31:0] $end
$upscope $end
$scope module u_mux_alu_0 $end
$var wire 2 r alu_src_sel [1:0] $end
$var wire 32 s imm [31:0] $end
$var wire 32 t reg2_rdata [31:0] $end
$var wire 32 u reg1_rdata [31:0] $end
$var wire 32 v curr_pc [31:0] $end
$var reg 32 w alu_src1 [31:0] $end
$var reg 32 x alu_src2 [31:0] $end
$upscope $end
$scope module u_mux_pc_0 $end
$var wire 1 S branch $end
$var wire 32 y imm [31:0] $end
$var wire 1 M jump $end
$var wire 1 E zero $end
$var wire 1 Q ena $end
$var wire 32 z curr_pc [31:0] $end
$var reg 32 { next_pc [31:0] $end
$upscope $end
$scope module u_pc_reg_0 $end
$var wire 1 A clk $end
$var wire 32 | next_pc [31:0] $end
$var wire 1 B rst_n $end
$var reg 32 } curr_pc [31:0] $end
$var reg 1 Q ena $end
$upscope $end
$scope module u_reg_file_0 $end
$var wire 1 A clk $end
$var wire 5 ~ reg1_raddr [4:0] $end
$var wire 5 !" reg2_raddr [4:0] $end
$var wire 5 "" reg_waddr [4:0] $end
$var wire 32 #" reg_wdata [31:0] $end
$var wire 1 F reg_wen $end
$var wire 1 B rst_n $end
$var reg 32 $" reg1_rdata [31:0] $end
$var reg 32 %" reg2_rdata [31:0] $end
$upscope $end
$upscope $end
$scope task inst_load $end
$upscope $end
$scope task reset $end
$upscope $end
$upscope $end
$enddefinitions $end
#0
$dumpvars
bx %"
bx $"
bx #"
bx ""
bx !"
bx ~
bx }
bx |
bx {
bx z
bx y
bx x
bx w
bx v
bx u
bx t
bx s
bx r
bx q
bx p
bx o
bx n
bx m
bx l
bx k
bx j
bx i
bx h
bx g
bx f
bx e
bx d
bx c
bx b
bx a
bx `
bx _
bx ^
bx ]
bx \
bx [
xZ
xY
bx X
bx W
bx V
bx U
bx T
xS
bx R
xQ
bx P
bx O
bx N
xM
bx L
bx K
bx J
bx I
bx H
bx G
xF
xE
bx D
bx C
xB
xA
bx @
bx ?
bx >
bx =
bx <
bx ;
bx :
bx 9
bx 8
bx 7
bx 6
bx 5
bx 4
bx 3
bx 2
bx 1
bx 0
bx /
bx .
bx -
bx ,
bx +
bx *
bx )
bx (
bx '
bx &
bx %
bx $
bx #
bx "
bx !
$end
#10000
1Y
1Z
b0 U
b0 \
b0 x
b0 V
b0 ]
b0 w
b0 D
b0 #"
b0 W
b0 _
0E
b0 H
b0 t
b0 %"
b0 J
b0 u
b0 $"
b1 T
b1 h
b1 r
b11 X
b11 ^
b11 g
b0 O
b0 i
b0 m
b11010 G
b11010 l
b11010 ""
b0 I
b0 k
b0 !"
b0 K
b0 j
b0 ~
1F
0M
0S
b0 `
b0 a
b11010 b
b0 e
b0 f
b10011 c
b0 P
b0 o
b0 s
b0 y
b110100010011 N
b110100010011 [
b110100010011 d
b110100010011 n
b110100010011 q
b0 L
b0 {
b0 |
0Q
b0 R
b0 p
b0 v
b0 z
b0 }
0B
1A
#20000
0A
#30000
b100 L
b100 {
b100 |
b0 ,
1Q
1A
1B
#40000
0A
#50000
b1 T
b1 h
b1 r
b11 X
b11 ^
b11 g
b11011 G
b11011 l
b11011 ""
1F
b11011 b
b110110010011 N
b110110010011 [
b110110010011 d
b110110010011 n
b110110010011 q
b1000 L
b1000 {
b1000 |
b100 R
b100 p
b100 v
b100 z
b100 }
1A
#60000
0A
#70000
b1 T
b1 h
b1 r
b11 X
b11 ^
b11 g
b1 G
b1 l
b1 ""
1F
b1 b
b10010011 N
b10010011 [
b10010011 d
b10010011 n
b10010011 q
b1100 L
b1100 {
b1100 |
b0 -
b1000 R
b1000 p
b1000 v
b1000 z
b1000 }
1A
#80000
0A
#90000
b1 T
b1 h
b1 r
b11 X
b11 ^
b11 g
b10 G
b10 l
b10 ""
1F
b10 b
b100010011 N
b100010011 [
b100010011 d
b100010011 n
b100010011 q
b10000 L
b10000 {
b10000 |
b1100 R
b1100 p
b1100 v
b1100 z
b1100 }
b0 *
1A
#100000
0A
#110000
1E
b0 D
b0 #"
b0 W
b0 _
b10 I
b10 k
b10 !"
b1 K
b1 j
b1 ~
b0 T
b0 h
b0 r
b1000 X
b1000 ^
b1000 g
b11110 G
b11110 l
b11110 ""
1F
1Y
1Z
b0 U
b0 \
b0 x
b10 `
b1 a
b11110 b
b10 f
b110011 c
b10 P
b10 o
b10 s
b10 y
b1000001010111100110011 N
b1000001010111100110011 [
b1000001010111100110011 d
b1000001010111100110011 n
b1000001010111100110011 q
b10100 L
b10100 {
b10100 |
b0 7
b10000 R
b10000 p
b10000 v
b10000 z
b10000 }
1A
#120000
0A
#130000
0E
b1 T
b1 h
b1 r
b11 X
b11 ^
b11 g
b11101 G
b11101 l
b11101 ""
b0 I
b0 k
b0 !"
b0 K
b0 j
b0 ~
1F
b0 `
b0 a
b11101 b
b0 f
b10011 c
b0 P
b0 o
b0 s
b0 y
b111010010011 N
b111010010011 [
b111010010011 d
b111010010011 n
b111010010011 q
b11000 L
b11000 {
b11000 |
b10100 R
b10100 p
b10100 v
b10100 z
b10100 }
b0 =
1A
#140000
0A
#150000
b10 D
b10 #"
b10 W
b10 _
b1 T
b1 h
b1 r
b11 X
b11 ^
b11 g
b11 G
b11 l
b11 ""
1F
0Y
0Z
b10 U
b10 \
b10 x
b10 `
b11 b
b10 P
b10 o
b10 s
b10 y
b1000000000000110010011 N
b1000000000000110010011 [
b1000000000000110010011 d
b1000000000000110010011 n
b1000000000000110010011 q
b11100 L
b11100 {
b11100 |
b0 <
b11000 R
b11000 p
b11000 v
b11000 z
b11000 }
1A
#160000
0A
#170000
1E
1S
b10 O
b10 i
b10 m
b11101 I
b11101 k
b11101 !"
b11110 K
b11110 j
b11110 ~
b0 T
b0 h
b0 r
b100 X
b100 ^
b100 g
b0 G
b0 l
b0 ""
0F
b11101 `
b11110 a
b10100 b
b100101 e
b1 f
b1100011 c
b10010110100 P
b10010110100 o
b10010110100 s
b10010110100 y
b0 D
b0 #"
b0 W
b0 _
b1001011110111110001101001100011 N
b1001011110111110001101001100011 [
b1001011110111110001101001100011 d
b1001011110111110001101001100011 n
b1001011110111110001101001100011 q
1Y
1Z
b0 U
b0 \
b0 x
b100000 L
b100000 {
b100000 |
b11100 R
b11100 p
b11100 v
b11100 z
b11100 }
b10 )
1A
#180000
0A
#190000
b1 D
b1 #"
b1 W
b1 _
0Y
0Z
b1 U
b1 \
b1 x
0E
b1 T
b1 h
b1 r
b1 G
b1 l
b1 ""
1F
b11 X
b11 ^
b11 g
b0 O
b0 i
b0 m
b0 I
b0 k
b0 !"
b0 K
b0 j
b0 ~
0S
b1 `
b0 a
b1 b
b0 e
b0 f
b10011 c
b1 P
b1 o
b1 s
b1 y
b100000000000010010011 N
b100000000000010010011 [
b100000000000010010011 d
b100000000000010010011 n
b100000000000010010011 q
b100100 L
b100100 {
b100100 |
b100000 R
b100000 p
b100000 v
b100000 z
b100000 }
1A
#200000
0A
#210000
b1 T
b1 h
b1 r
b11 X
b11 ^
b11 g
b10 G
b10 l
b10 ""
1F
b10 b
b1 P
b1 o
b1 s
b1 y
b1 D
b1 #"
b1 W
b1 _
b100000000000100010011 N
b100000000000100010011 [
b100000000000100010011 d
b100000000000100010011 n
b100000000000100010011 q
0Y
0Z
b1 U
b1 \
b1 x
b101000 L
b101000 {
b101000 |
b100100 R
b100100 p
b100100 v
b100100 z
b100100 }
b1 *
1A
#220000
0A
#230000
b1 V
b1 ]
b1 w
1E
b1 H
b1 t
b1 %"
b1 J
b1 u
b1 $"
b10 I
b10 k
b10 !"
b1 K
b1 j
b1 ~
b0 T
b0 h
b0 r
b1000 X
b1000 ^
b1000 g
b11110 G
b11110 l
b11110 ""
1F
b10 `
b1 a
b11110 b
b10 f
b110011 c
b10 P
b10 o
b10 s
b10 y
b0 D
b0 #"
b0 W
b0 _
b1000001010111100110011 N
b1000001010111100110011 [
b1000001010111100110011 d
b1000001010111100110011 n
b1000001010111100110011 q
1Y
1Z
b1 U
b1 \
b1 x
b101100 L
b101100 {
b101100 |
b1 7
b101000 R
b101000 p
b101000 v
b101000 z
b101000 }
1A
#240000
0A
#250000
b0 U
b0 \
b0 x
1Y
1Z
b0 V
b0 ]
b0 w
b0 D
b0 #"
b0 W
b0 _
0E
b0 H
b0 t
b0 %"
b0 J
b0 u
b0 $"
b1 T
b1 h
b1 r
b11 X
b11 ^
b11 g
b11101 G
b11101 l
b11101 ""
b0 I
b0 k
b0 !"
b0 K
b0 j
b0 ~
1F
b0 `
b0 a
b11101 b
b0 f
b10011 c
b0 P
b0 o
b0 s
b0 y
b111010010011 N
b111010010011 [
b111010010011 d
b111010010011 n
b111010010011 q
b110000 L
b110000 {
b110000 |
b101100 R
b101100 p
b101100 v
b101100 z
b101100 }
1A
#260000
0A
#270000
b11 D
b11 #"
b11 W
b11 _
b1 T
b1 h
b1 r
b11 X
b11 ^
b11 g
b11 G
b11 l
b11 ""
1F
0Y
0Z
b11 U
b11 \
b11 x
b11 `
b11 b
b11 P
b11 o
b11 s
b11 y
b1100000000000110010011 N
b1100000000000110010011 [
b1100000000000110010011 d
b1100000000000110010011 n
b1100000000000110010011 q
b110100 L
b110100 {
b110100 |
b110000 R
b110000 p
b110000 v
b110000 z
b110000 }
1A
#280000
0A
#290000
1E
1S
b10 O
b10 i
b10 m
b11101 I
b11101 k
b11101 !"
b11110 K
b11110 j
b11110 ~
b0 T
b0 h
b0 r
b100 X
b100 ^
b100 g
b0 G
b0 l
b0 ""
0F
b11101 `
b11110 a
b11100 b
b100100 e
b1 f
b1100011 c
b10010011100 P
b10010011100 o
b10010011100 s
b10010011100 y
b0 D
b0 #"
b0 W
b0 _
b1001001110111110001111001100011 N
b1001001110111110001111001100011 [
b1001001110111110001111001100011 d
b1001001110111110001111001100011 n
b1001001110111110001111001100011 q
1Y
1Z
b0 U
b0 \
b0 x
b111000 L
b111000 {
b111000 |
b110100 R
b110100 p
b110100 v
b110100 z
b110100 }
b11 )
1A
#300000
0A
#310000
b11 D
b11 #"
b11 W
b11 _
0Y
0Z
b11 U
b11 \
b11 x
0E
b1 T
b1 h
b1 r
b1 G
b1 l
b1 ""
1F
b11 X
b11 ^
b11 g
b0 O
b0 i
b0 m
b0 I
b0 k
b0 !"
b0 K
b0 j
b0 ~
0S
b11 `
b0 a
b1 b
b0 e
b0 f
b10011 c
b11 P
b11 o
b11 s
b11 y
b1100000000000010010011 N
b1100000000000010010011 [
b1100000000000010010011 d
b1100000000000010010011 n
b1100000000000010010011 q
b111100 L
b111100 {
b111100 |
b111000 R
b111000 p
b111000 v
b111000 z
b111000 }
1A
#320000
0A
#330000
b1 T
b1 h
b1 r
b11 X
b11 ^
b11 g
b10 G
b10 l
b10 ""
1F
b111 `
b10 b
b111 P
b111 o
b111 s
b111 y
b111 D
b111 #"
b111 W
b111 _
b11100000000000100010011 N
b11100000000000100010011 [
b11100000000000100010011 d
b11100000000000100010011 n
b11100000000000100010011 q
0Y
0Z
b111 U
b111 \
b111 x
b1000000 L
b1000000 {
b1000000 |
b111100 R
b111100 p
b111100 v
b111100 z
b111100 }
b11 *
1A
#340000
0A
#350000
b11 V
b11 ]
b11 w
0E
b111 H
b111 t
b111 %"
b11 J
b11 u
b11 $"
b10 I
b10 k
b10 !"
b1 K
b1 j
b1 ~
b0 T
b0 h
b0 r
b1000 X
b1000 ^
b1000 g
b11110 G
b11110 l
b11110 ""
1F
b10 `
b1 a
b11110 b
b10 f
b110011 c
b10 P
b10 o
b10 s
b10 y
b1 D
b1 #"
b1 W
b1 _
b1000001010111100110011 N
b1000001010111100110011 [
b1000001010111100110011 d
b1000001010111100110011 n
b1000001010111100110011 q
0Y
0Z
b111 U
b111 \
b111 x
b1000100 L
b1000100 {
b1000100 |
b111 7
b1000000 R
b1000000 p
b1000000 v
b1000000 z
b1000000 }
1A
#360000
0A
#370000
0Y
0Z
b1 U
b1 \
b1 x
b0 V
b0 ]
b0 w
b1 D
b1 #"
b1 W
b1 _
b0 H
b0 t
b0 %"
b0 J
b0 u
b0 $"
b1 T
b1 h
b1 r
b11 X
b11 ^
b11 g
b11101 G
b11101 l
b11101 ""
b0 I
b0 k
b0 !"
b0 K
b0 j
b0 ~
1F
b1 `
b0 a
b11101 b
b0 f
b10011 c
b1 P
b1 o
b1 s
b1 y
b100000000111010010011 N
b100000000111010010011 [
b100000000111010010011 d
b100000000111010010011 n
b100000000111010010011 q
b1001000 L
b1001000 {
b1001000 |
b1000100 R
b1000100 p
b1000100 v
b1000100 z
b1000100 }
b1 =
1A
#380000
0A
#390000
b1 T
b1 h
b1 r
b11 X
b11 ^
b11 g
b11 G
b11 l
b11 ""
1F
b100 `
b11 b
b100 P
b100 o
b100 s
b100 y
b100 D
b100 #"
b100 W
b100 _
b10000000000000110010011 N
b10000000000000110010011 [
b10000000000000110010011 d
b10000000000000110010011 n
b10000000000000110010011 q
0Y
0Z
b100 U
b100 \
b100 x
b1001100 L
b1001100 {
b1001100 |
b1 <
b1001000 R
b1001000 p
b1001000 v
b1001000 z
b1001000 }
1A
#400000
0A
#410000
b1 V
b1 ]
b1 w
1E
b1 H
b1 t
b1 %"
b1 J
b1 u
b1 $"
1S
b10 O
b10 i
b10 m
b11101 I
b11101 k
b11101 !"
b11110 K
b11110 j
b11110 ~
b0 T
b0 h
b0 r
b100 X
b100 ^
b100 g
b0 G
b0 l
b0 ""
0F
b11101 `
b11110 a
b100 b
b100100 e
b1 f
b1100011 c
b10010000100 P
b10010000100 o
b10010000100 s
b10010000100 y
b0 D
b0 #"
b0 W
b0 _
b1001001110111110001001001100011 N
b1001001110111110001001001100011 [
b1001001110111110001001001100011 d
b1001001110111110001001001100011 n
b1001001110111110001001001100011 q
1Y
1Z
b1 U
b1 \
b1 x
b1010000 L
b1010000 {
b1010000 |
b1001100 R
b1001100 p
b1001100 v
b1001100 z
b1001100 }
b100 )
1A
#420000
0A
#430000
b111 U
b111 \
b111 x
0Y
0Z
b0 V
b0 ]
b0 w
b111 D
b111 #"
b111 W
b111 _
0E
b0 H
b0 t
b0 %"
b0 J
b0 u
b0 $"
b1 T
b1 h
b1 r
b1 G
b1 l
b1 ""
1F
b11 X
b11 ^
b11 g
b0 O
b0 i
b0 m
b0 I
b0 k
b0 !"
b0 K
b0 j
b0 ~
0S
b111 `
b0 a
b1 b
b0 e
b0 f
b10011 c
b111 P
b111 o
b111 s
b111 y
b11100000000000010010011 N
b11100000000000010010011 [
b11100000000000010010011 d
b11100000000000010010011 n
b11100000000000010010011 q
b1010100 L
b1010100 {
b1010100 |
b1010000 R
b1010000 p
b1010000 v
b1010000 z
b1010000 }
1A
#440000
0A
#450000
b1 T
b1 h
b1 r
b11 X
b11 ^
b11 g
b10 G
b10 l
b10 ""
1F
b11 `
b10 b
b11 P
b11 o
b11 s
b11 y
b11 D
b11 #"
b11 W
b11 _
b1100000000000100010011 N
b1100000000000100010011 [
b1100000000000100010011 d
b1100000000000100010011 n
b1100000000000100010011 q
0Y
0Z
b11 U
b11 \
b11 x
b1011000 L
b1011000 {
b1011000 |
b1010100 R
b1010100 p
b1010100 v
b1010100 z
b1010100 }
b111 *
1A
#460000
0A
#470000
b111 V
b111 ]
b111 w
1E
b11 H
b11 t
b11 %"
b111 J
b111 u
b111 $"
b10 I
b10 k
b10 !"
b1 K
b1 j
b1 ~
b0 T
b0 h
b0 r
b1000 X
b1000 ^
b1000 g
b11110 G
b11110 l
b11110 ""
1F
b10 `
b1 a
b11110 b
b10 f
b110011 c
b10 P
b10 o
b10 s
b10 y
b0 D
b0 #"
b0 W
b0 _
b1000001010111100110011 N
b1000001010111100110011 [
b1000001010111100110011 d
b1000001010111100110011 n
b1000001010111100110011 q
1Y
1Z
b11 U
b11 \
b11 x
b1011100 L
b1011100 {
b1011100 |
b11 7
b1011000 R
b1011000 p
b1011000 v
b1011000 z
b1011000 }
1A
#480000
0A
#490000
b0 U
b0 \
b0 x
1Y
1Z
b0 V
b0 ]
b0 w
b0 D
b0 #"
b0 W
b0 _
0E
b0 H
b0 t
b0 %"
b0 J
b0 u
b0 $"
b1 T
b1 h
b1 r
b11 X
b11 ^
b11 g
b11101 G
b11101 l
b11101 ""
b0 I
b0 k
b0 !"
b0 K
b0 j
b0 ~
1F
b0 `
b0 a
b11101 b
b0 f
b10011 c
b0 P
b0 o
b0 s
b0 y
b111010010011 N
b111010010011 [
b111010010011 d
b111010010011 n
b111010010011 q
b1100000 L
b1100000 {
b1100000 |
b1011100 R
b1011100 p
b1011100 v
b1011100 z
b1011100 }
b0 =
1A
#500000
0A
#510000
b101 D
b101 #"
b101 W
b101 _
b1 T
b1 h
b1 r
b11 X
b11 ^
b11 g
b11 G
b11 l
b11 ""
1F
0Y
0Z
b101 U
b101 \
b101 x
b101 `
b11 b
b101 P
b101 o
b101 s
b101 y
b10100000000000110010011 N
b10100000000000110010011 [
b10100000000000110010011 d
b10100000000000110010011 n
b10100000000000110010011 q
b1100100 L
b1100100 {
b1100100 |
b0 <
b1100000 R
b1100000 p
b1100000 v
b1100000 z
b1100000 }
1A
#520000
0A
#530000
1E
1S
b10 O
b10 i
b10 m
b11101 I
b11101 k
b11101 !"
b11110 K
b11110 j
b11110 ~
b0 T
b0 h
b0 r
b100 X
b100 ^
b100 g
b0 G
b0 l
b0 ""
0F
b11101 `
b11110 a
b1100 b
b100011 e
b1 f
b1100011 c
b10001101100 P
b10001101100 o
b10001101100 s
b10001101100 y
b0 D
b0 #"
b0 W
b0 _
b1000111110111110001011001100011 N
b1000111110111110001011001100011 [
b1000111110111110001011001100011 d
b1000111110111110001011001100011 n
b1000111110111110001011001100011 q
1Y
1Z
b0 U
b0 \
b0 x
b1101000 L
b1101000 {
b1101000 |
b1100100 R
b1100100 p
b1100100 v
b1100100 z
b1100100 }
b101 )
1A
#540000
0A
#550000
0E
b1 T
b1 h
b1 r
b1 G
b1 l
b1 ""
1F
b11 X
b11 ^
b11 g
b0 O
b0 i
b0 m
b0 I
b0 k
b0 !"
b0 K
b0 j
b0 ~
0S
b0 `
b0 a
b1 b
b0 e
b0 f
b10011 c
b0 P
b0 o
b0 s
b0 y
b10010011 N
b10010011 [
b10010011 d
b10010011 n
b10010011 q
b1101100 L
b1101100 {
b1101100 |
b1101000 R
b1101000 p
b1101000 v
b1101000 z
b1101000 }
1A
#560000
0A
#570000
b11111111111111111000000000000000 D
b11111111111111111000000000000000 #"
b11111111111111111000000000000000 W
b11111111111111111000000000000000 _
b100 O
b100 i
b100 m
b1 T
b1 h
b1 r
b11 X
b11 ^
b11 g
b10 G
b10 l
b10 ""
1F
0Y
b11111111111111111000000000000000 U
b11111111111111111000000000000000 \
b11111111111111111000000000000000 x
b11111 `
b11111 a
b10 b
b1111111 e
b110111 c
b11111111111111111000000000000000 P
b11111111111111111000000000000000 o
b11111111111111111000000000000000 s
b11111111111111111000000000000000 y
b11111111111111111000000100110111 N
b11111111111111111000000100110111 [
b11111111111111111000000100110111 d
b11111111111111111000000100110111 n
b11111111111111111000000100110111 q
b1110000 L
b1110000 {
b1110000 |
b1101100 R
b1101100 p
b1101100 v
b1101100 z
b1101100 }
b0 *
1A
#580000
0A
#590000
1E
b11111111111111111000000000000000 H
b11111111111111111000000000000000 t
b11111111111111111000000000000000 %"
b10 I
b10 k
b10 !"
b1 K
b1 j
b1 ~
b0 T
b0 h
b0 r
b1000 X
b1000 ^
b1000 g
b0 O
b0 i
b0 m
b11110 G
b11110 l
b11110 ""
1F
1Z
b10 `
b1 a
b11110 b
b0 e
b10 f
b110011 c
b10 P
b10 o
b10 s
b10 y
b0 D
b0 #"
b0 W
b0 _
b1000001010111100110011 N
b1000001010111100110011 [
b1000001010111100110011 d
b1000001010111100110011 n
b1000001010111100110011 q
0Y
b11111111111111111000000000000000 U
b11111111111111111000000000000000 \
b11111111111111111000000000000000 x
b1110100 L
b1110100 {
b1110100 |
b11111111111111111000000000000000 7
b1110000 R
b1110000 p
b1110000 v
b1110000 z
b1110000 }
1A
#600000
0A
#610000
1Y
b0 U
b0 \
b0 x
b0 D
b0 #"
b0 W
b0 _
0E
b0 H
b0 t
b0 %"
b1 T
b1 h
b1 r
b11 X
b11 ^
b11 g
b11101 G
b11101 l
b11101 ""
b0 I
b0 k
b0 !"
b0 K
b0 j
b0 ~
1F
b0 `
b0 a
b11101 b
b0 f
b10011 c
b0 P
b0 o
b0 s
b0 y
b111010010011 N
b111010010011 [
b111010010011 d
b111010010011 n
b111010010011 q
b1111000 L
b1111000 {
b1111000 |
b1110100 R
b1110100 p
b1110100 v
b1110100 z
b1110100 }
1A
#620000
0A
#630000
b110 D
b110 #"
b110 W
b110 _
b1 T
b1 h
b1 r
b11 X
b11 ^
b11 g
b11 G
b11 l
b11 ""
1F
0Y
0Z
b110 U
b110 \
b110 x
b110 `
b11 b
b110 P
b110 o
b110 s
b110 y
b11000000000000110010011 N
b11000000000000110010011 [
b11000000000000110010011 d
b11000000000000110010011 n
b11000000000000110010011 q
b1111100 L
b1111100 {
b1111100 |
b1111000 R
b1111000 p
b1111000 v
b1111000 z
b1111000 }
1A
#640000
0A
#650000
1E
1S
b10 O
b10 i
b10 m
b11101 I
b11101 k
b11101 !"
b11110 K
b11110 j
b11110 ~
b0 T
b0 h
b0 r
b100 X
b100 ^
b100 g
b0 G
b0 l
b0 ""
0F
b11101 `
b11110 a
b10100 b
b100010 e
b1 f
b1100011 c
b10001010100 P
b10001010100 o
b10001010100 s
b10001010100 y
b0 D
b0 #"
b0 W
b0 _
b1000101110111110001101001100011 N
b1000101110111110001101001100011 [
b1000101110111110001101001100011 d
b1000101110111110001101001100011 n
b1000101110111110001101001100011 q
1Y
1Z
b0 U
b0 \
b0 x
b10000000 L
b10000000 {
b10000000 |
b1111100 R
b1111100 p
b1111100 v
b1111100 z
b1111100 }
b110 )
1A
#660000
0A
#670000
b10000000000000000000000000000000 D
b10000000000000000000000000000000 #"
b10000000000000000000000000000000 W
b10000000000000000000000000000000 _
0Y
b10000000000000000000000000000000 U
b10000000000000000000000000000000 \
b10000000000000000000000000000000 x
0E
b1 T
b1 h
b1 r
b1 G
b1 l
b1 ""
1F
b11 X
b11 ^
b11 g
b100 O
b100 i
b100 m
b0 I
b0 k
b0 !"
b0 K
b0 j
b0 ~
0S
b0 `
b0 a
b1 b
b1000000 e
b0 f
b110111 c
b10000000000000000000000000000000 P
b10000000000000000000000000000000 o
b10000000000000000000000000000000 s
b10000000000000000000000000000000 y
b10000000000000000000000010110111 N
b10000000000000000000000010110111 [
b10000000000000000000000010110111 d
b10000000000000000000000010110111 n
b10000000000000000000000010110111 q
b10000100 L
b10000100 {
b10000100 |
b10000000 R
b10000000 p
b10000000 v
b10000000 z
b10000000 }
1A
#680000
0A
#690000
b1 T
b1 h
b1 r
b11 X
b11 ^
b11 g
b0 O
b0 i
b0 m
b10 G
b10 l
b10 ""
1F
b10 b
b0 e
b10011 c
b0 P
b0 o
b0 s
b0 y
b0 D
b0 #"
b0 W
b0 _
b100010011 N
b100010011 [
b100010011 d
b100010011 n
b100010011 q
1Y
b0 U
b0 \
b0 x
b10001000 L
b10001000 {
b10001000 |
b10000100 R
b10000100 p
b10000100 v
b10000100 z
b10000100 }
b10000000000000000000000000000000 *
1A
#700000
0A
#710000
b10000000000000000000000000000000 V
b10000000000000000000000000000000 ]
b10000000000000000000000000000000 w
0E
b10000000000000000000000000000000 J
b10000000000000000000000000000000 u
b10000000000000000000000000000000 $"
b1 D
b1 #"
b1 W
b1 _
b10 I
b10 k
b10 !"
b1 K
b1 j
b1 ~
b0 T
b0 h
b0 r
b1000 X
b1000 ^
b1000 g
b11110 G
b11110 l
b11110 ""
1F
1Y
0Z
b0 U
b0 \
b0 x
b10 `
b1 a
b11110 b
b10 f
b110011 c
b10 P
b10 o
b10 s
b10 y
b1000001010111100110011 N
b1000001010111100110011 [
b1000001010111100110011 d
b1000001010111100110011 n
b1000001010111100110011 q
b10001100 L
b10001100 {
b10001100 |
b0 7
b10001000 R
b10001000 p
b10001000 v
b10001000 z
b10001000 }
1A
#720000
0A
#730000
0Y
b1 U
b1 \
b1 x
0Z
b0 V
b0 ]
b0 w
b1 D
b1 #"
b1 W
b1 _
b0 J
b0 u
b0 $"
b1 T
b1 h
b1 r
b11 X
b11 ^
b11 g
b11101 G
b11101 l
b11101 ""
b0 I
b0 k
b0 !"
b0 K
b0 j
b0 ~
1F
b1 `
b0 a
b11101 b
b0 f
b10011 c
b1 P
b1 o
b1 s
b1 y
b100000000111010010011 N
b100000000111010010011 [
b100000000111010010011 d
b100000000111010010011 n
b100000000111010010011 q
b10010000 L
b10010000 {
b10010000 |
b10001100 R
b10001100 p
b10001100 v
b10001100 z
b10001100 }
b1 =
1A
#740000
0A
#750000
b1 T
b1 h
b1 r
b11 X
b11 ^
b11 g
b11 G
b11 l
b11 ""
1F
b111 `
b11 b
b111 P
b111 o
b111 s
b111 y
b111 D
b111 #"
b111 W
b111 _
b11100000000000110010011 N
b11100000000000110010011 [
b11100000000000110010011 d
b11100000000000110010011 n
b11100000000000110010011 q
0Y
0Z
b111 U
b111 \
b111 x
b10010100 L
b10010100 {
b10010100 |
b1 <
b10010000 R
b10010000 p
b10010000 v
b10010000 z
b10010000 }
1A
#760000
0A
